{
    "nextID": 9,
    "items": [
        {
            "ID": 1,
            "login": "@darkdefender13",
            "fullname": "Yurii Medalov",
            "role": true,
            "registeredAt": "2020-08-13",
            "avatarURL": "https://gta5-portal.3dn.ru/gallery/avatar/gtav_avatar_4.jpg",
            "isEnabled": true
        },
        {
            "ID": 2,
            "login": "@Alexeio25",
            "fullname": "Olexei Olexeev",
            "role": false,
            "registeredAt": "2020-10-09",
            "avatarURL": "https://media.rockstargames.com/rockstargames/img/global/downloads/buddyiconsconavatars/v_trevor_atv_256x256.jpg",
            "isEnabled": true
        },
        {
            "ID": 7,
            "login": "crazyth",
            "fullname": "Filipp Johnson",
            "role": "false",
            "registeredAt": "2020-10-17",
            "avatarURL": "https://cdn.mos.cms.futurecdn.net/HQBRR69rTKjho5qPhXxCrb.jpg",
            "isEnabled": true
        },
        {
            "ID": 8,
            "login": "Dendilon",
            "fullname": "Andrey Homchuk",
            "role": "false",
            "registeredAt": "2020-09-10",
            "avatarURL": "https://dthezntil550i.cloudfront.net/kg/latest/kg1802132010216500004834729/1280_960/557d644f-12f3-49e1-bb66-23c16400540d.png",
            "isEnabled": true
        }
    ]
}